{"count": 365, "next": "https://ll.thespacedevs.com/2.3.0/launches/upcoming/?format=json&limit=10&mode=list&offset=10", "previous": null, "results": [{"id": "fd4ba54a-df30-4318-a79b-2f9d6a38acc5", "url": "https://ll.thespacedevs.com/2.3.0/launches/fd4ba54a-df30-4318-a79b-2f9d6a38acc5/?format=json", "name": "Falcon 9 Block 5 | Transporter 16 (Dedicated SSO Rideshare)", "response_mode": "list", "slug": "falcon-9-block-5-transporter-16-dedicated-sso-ride", "launch_designator": null, "status": {"id": 1, "name": "Go for Launch", "abbrev": "Go", "description": "Current T-0 confirmed by official or reliable sources."}, "last_updated": "2026-03-29T09:00:55Z", "net": "2026-03-30T10:20:00Z", "net_precision": {"id": 1, "name": "Minute", "abbrev": "MIN", "description": "The T-0 is accurate to the minute."}, "window_end": "2026-03-30T11:17:00Z", "window_start": "2026-03-30T10:20:00Z", "image": {"id": 1736, "name": "[AUTO] Falcon 9 - image", "image_url": "https://thespacedevs-prod.nyc3.digitaloceanspaces.com/media/images/falcon_9_image_20230807133459.jpeg", "thumbnail_url": "https://thespacedevs-prod.nyc3.digitaloceanspaces.com/media/images/255bauto255d__image_thumbnail_20240305193628.jpeg", "credit": null, "license": {"id": 1, "name": "Unknown", "priority": 9, "link": null}, "single_use": true, "variants": []}, "infographic": null}, {"id": "10fbecb2-7624-44bc-85ce-9a22b9b9f2ec", "url": "https://ll.thespacedevs.com/2.3.0/launches/10fbecb2-7624-44bc-85ce-9a22b9b9f2ec/?format=json", "name": "Falcon 9 Block 5 | Starlink Group 10-44", "response_mode": "list", "slug": "falcon-9-block-5-starlink-group-10-44", "launch_designator": null, "status": {"id": 1, "name": "Go for Launch", "abbrev": "Go", "description": "Current T-0 confirmed by official or reliable sources."}, "last_updated": "2026-03-29T01:33:15Z", "net": "2026-03-30T21:15:00Z", "net_precision": {"id": 1, "name": "Minute", "abbrev": "MIN", "description": "The T-0 is accurate to the minute."}, "window_end": "2026-03-31T01:15:00Z", "window_start": "2026-03-30T21:15:00Z", "image": {"id": 1296, "name": "Starlink night fairing", "image_url": "https://thespacedevs-prod.nyc3.digitaloceanspaces.com/media/images/falcon2520925_image_20221009234147.png", "thumbnail_url": "https://thespacedevs-prod.nyc3.digitaloceanspaces.com/media/images/255bauto255d__image_thumbnail_20240305192320.png", "credit": "SpaceX", "license": {"id": 5, "name": "CC BY-NC 2.0", "priority": 1, "link": "https://creativecommons.org/licenses/by-nc/2.0/"}, "single_use": false, "variants": []}, "infographic": null}, {"id": "e3b45caa-2ccc-4937-931b-780edbe58db9", "url": "https://ll.thespacedevs.com/2.3.0/launches/e3b45caa-2ccc-4937-931b-780edbe58db9/?format=json", "name": "Kinetica 2 | Qingzhou Spacecraft Demo Flight", "response_mode": "list", "slug": "kinetica-2-qingzhou-spacecraft-demo-flight", "launch_designator": null, "status": {"id": 2, "name": "To Be Determined", "abbrev": "TBD", "description": "Current date is a placeholder or rough estimation based on unreliable or interpreted sources."}, "last_updated": "2026-03-28T12:25:54Z", "net": "2026-03-31T00:00:00Z", "net_precision": {"id": 7, "name": "Month", "abbrev": "M", "description": "The T-0 is expected in the given month."}, "window_end": "2026-03-31T00:00:00Z", "window_start": "2026-03-31T00:00:00Z", "image": {"id": 2644, "name": "Kinetica 2 Ground Test Vehicle", "image_url": "https://thespacedevs-prod.nyc3.digitaloceanspaces.com/media/images/kinetica_2_grou_image_20260116124018.jpg", "thumbnail_url": "https://thespacedevs-prod.nyc3.digitaloceanspaces.com/media/images/kinetica_2_grou_image_thumbnail_20260116124019.jpeg", "credit": "CAS Space", "license": {"id": 1, "name": "Unknown", "priority": 9, "link": null}, "single_use": false, "variants": []}, "infographic": null}, {"id": "98451321-cd10-4ca7-a0d1-4076db5fa73d", "url": "https://ll.thespacedevs.com/2.3.0/launches/98451321-cd10-4ca7-a0d1-4076db5fa73d/?format=json", "name": "Tianlong-3 | Demo Flight", "response_mode": "list", "slug": "tianlong-3-demo-flight", "launch_designator": null, "status": {"id": 2, "name": "To Be Determined", "abbrev": "TBD", "description": "Current date is a placeholder or rough estimation based on unreliable or interpreted sources."}, "last_updated": "2026-03-28T12:25:08Z", "net": "2026-03-31T00:00:00Z", "net_precision": {"id": 7, "name": "Month", "abbrev": "M", "description": "The T-0 is expected in the given month."}, "window_end": "2026-03-31T00:00:00Z", "window_start": "2026-03-31T00:00:00Z", "image": null, "infographic": null}, {"id": "4aa02420-1bcb-4dd9-afa8-06d5ff89d248", "url": "https://ll.thespacedevs.com/2.3.0/launches/4aa02420-1bcb-4dd9-afa8-06d5ff89d248/?format=json", "name": "Zhuque-2E | Unknown Payload", "response_mode": "list", "slug": "zhuque-2e-unknown-payload", "launch_designator": null, "status": {"id": 2, "name": "To Be Determined", "abbrev": "TBD", "description": "Current date is a placeholder or rough estimation based on unreliable or interpreted sources."}, "last_updated": "2026-03-19T05:25:59Z", "net": "2026-03-31T00:00:00Z", "net_precision": {"id": 7, "name": "Month", "abbrev": "M", "description": "The T-0 is expected in the given month."}, "window_end": "2026-03-31T00:00:00Z", "window_start": "2026-03-31T00:00:00Z", "image": {"id": 2289, "name": "Zhuque 2E on the launch pad", "image_url": "https://thespacedevs-prod.nyc3.digitaloceanspaces.com/media/images/zhunque_2e_on_t_image_20241216101643.jpg", "thumbnail_url": "https://thespacedevs-prod.nyc3.digitaloceanspaces.com/media/images/zhunque_2e_on_t_image_thumbnail_20241216101644.jpeg", "credit": "Landspace", "license": {"id": 1, "name": "Unknown", "priority": 9, "link": null}, "single_use": true, "variants": []}, "infographic": null}, {"id": "bc0cca05-0fb5-43ca-b648-a852d20ceaf3", "url": "https://ll.thespacedevs.com/2.3.0/launches/bc0cca05-0fb5-43ca-b648-a852d20ceaf3/?format=json", "name": "Soyuz 2.1a/Fregat-M | Meridian-M No.21L", "response_mode": "list", "slug": "soyuz-21afregat-m-meridian-m-no21l", "launch_designator": null, "status": {"id": 1, "name": "Go for Launch", "abbrev": "Go", "description": "Current T-0 confirmed by official or reliable sources."}, "last_updated": "2026-03-27T20:33:11Z", "net": "2026-04-01T02:00:00Z", "net_precision": {"id": 2, "name": "Hour", "abbrev": "HR", "description": "The T-0 is accurate to the hour."}, "window_end": "2026-04-01T12:00:00Z", "window_start": "2026-04-01T02:00:00Z", "image": {"id": 1829, "name": "[AUTO] Soyuz 2.1a/Fregat-M - image", "image_url": "https://thespacedevs-prod.nyc3.digitaloceanspaces.com/media/images/soyuz25202.1a_image_20190726062341.png", "thumbnail_url": "https://thespacedevs-prod.nyc3.digitaloceanspaces.com/media/images/255bauto255d__image_thumbnail_20240305193859.png", "credit": null, "license": {"id": 1, "name": "Unknown", "priority": 9, "link": null}, "single_use": true, "variants": []}, "infographic": null}, {"id": "41699701-2ef4-4b0c-ac9d-6757820cde87", "url": "https://ll.thespacedevs.com/2.3.0/launches/41699701-2ef4-4b0c-ac9d-6757820cde87/?format=json", "name": "SLS Block 1 | Artemis II", "response_mode": "list", "slug": "sls-block-1-artemis-ii", "launch_designator": null, "status": {"id": 1, "name": "Go for Launch", "abbrev": "Go", "description": "Current T-0 confirmed by official or reliable sources."}, "last_updated": "2026-03-29T09:42:15Z", "net": "2026-04-01T22:24:00Z", "net_precision": {"id": 1, "name": "Minute", "abbrev": "MIN", "description": "The T-0 is accurate to the minute."}, "window_end": "2026-04-02T00:24:00Z", "window_start": "2026-04-01T22:24:00Z", "image": {"id": 1838, "name": "[AUTO] Space Launch System (SLS) - image", "image_url": "https://thespacedevs-prod.nyc3.digitaloceanspaces.com/media/images/space_launch_sy_image_20220331082429.jpeg", "thumbnail_url": "https://thespacedevs-prod.nyc3.digitaloceanspaces.com/media/images/255bauto255d__image_thumbnail_20240305193913.jpeg", "credit": null, "license": {"id": 1, "name": "Unknown", "priority": 9, "link": null}, "single_use": true, "variants": []}, "infographic": "https://thespacedevs-prod.nyc3.digitaloceanspaces.com/media/infographic_images/sls2520block2_infographic_20260329082241.jpeg"}, {"id": "74b3aa8f-dc54-43dd-b8dd-1dc62ccccfc4", "url": "https://ll.thespacedevs.com/2.3.0/launches/74b3aa8f-dc54-43dd-b8dd-1dc62ccccfc4/?format=json", "name": "Soyuz-5 | Demo Flight", "response_mode": "list", "slug": "soyuz-5-demo-flight", "launch_designator": null, "status": {"id": 8, "name": "To Be Confirmed", "abbrev": "TBC", "description": "Awaiting official confirmation - current date is known with some certainty."}, "last_updated": "2026-03-26T14:35:59Z", "net": "2026-04-02T11:00:00Z", "net_precision": {"id": 1, "name": "Minute", "abbrev": "MIN", "description": "The T-0 is accurate to the minute."}, "window_end": "2026-04-02T11:00:00Z", "window_start": "2026-04-02T11:00:00Z", "image": {"id": 2736, "name": "Soyuz-5 assembled at Baikonur Cosmodrome", "image_url": "https://thespacedevs-prod.nyc3.digitaloceanspaces.com/media/images/soyuz-5_assembl_image_20260327210910.jpeg", "thumbnail_url": "https://thespacedevs-prod.nyc3.digitaloceanspaces.com/media/images/soyuz-5_assembl_image_thumbnail_20260327210911.jpeg", "credit": "Roscosmos", "license": {"id": 1, "name": "Unknown", "priority": 9, "link": null}, "single_use": true, "variants": []}, "infographic": null}, {"id": "63aa7636-d2b7-457f-a3e6-27e564e42941", "url": "https://ll.thespacedevs.com/2.3.0/launches/63aa7636-d2b7-457f-a3e6-27e564e42941/?format=json", "name": "Falcon 9 Block 5 | Starlink Group 10-58", "response_mode": "list", "slug": "falcon-9-block-5-starlink-group-10-58", "launch_designator": null, "status": {"id": 1, "name": "Go for Launch", "abbrev": "Go", "description": "Current T-0 confirmed by official or reliable sources."}, "last_updated": "2026-03-27T19:02:00Z", "net": "2026-04-02T11:52:00Z", "net_precision": {"id": 1, "name": "Minute", "abbrev": "MIN", "description": "The T-0 is accurate to the minute."}, "window_end": "2026-04-02T15:52:00Z", "window_start": "2026-04-02T11:52:00Z", "image": {"id": 1296, "name": "Starlink night fairing", "image_url": "https://thespacedevs-prod.nyc3.digitaloceanspaces.com/media/images/falcon2520925_image_20221009234147.png", "thumbnail_url": "https://thespacedevs-prod.nyc3.digitaloceanspaces.com/media/images/255bauto255d__image_thumbnail_20240305192320.png", "credit": "SpaceX", "license": {"id": 5, "name": "CC BY-NC 2.0", "priority": 1, "link": "https://creativecommons.org/licenses/by-nc/2.0/"}, "single_use": false, "variants": []}, "infographic": null}, {"id": "becc7e9c-72cc-4eb5-a638-1af4491a5729", "url": "https://ll.thespacedevs.com/2.3.0/launches/becc7e9c-72cc-4eb5-a638-1af4491a5729/?format=json", "name": "Falcon 9 Block 5 | Starlink Group 17-35", "response_mode": "list", "slug": "falcon-9-block-5-starlink-group-17-35", "launch_designator": null, "status": {"id": 1, "name": "Go for Launch", "abbrev": "Go", "description": "Current T-0 confirmed by official or reliable sources."}, "last_updated": "2026-03-25T16:14:17Z", "net": "2026-04-02T23:03:00Z", "net_precision": {"id": 1, "name": "Minute", "abbrev": "MIN", "description": "The T-0 is accurate to the minute."}, "window_end": "2026-04-03T03:03:00Z", "window_start": "2026-04-02T23:03:00Z", "image": {"id": 1296, "name": "Starlink night fairing", "image_url": "https://thespacedevs-prod.nyc3.digitaloceanspaces.com/media/images/falcon2520925_image_20221009234147.png", "thumbnail_url": "https://thespacedevs-prod.nyc3.digitaloceanspaces.com/media/images/255bauto255d__image_thumbnail_20240305192320.png", "credit": "SpaceX", "license": {"id": 5, "name": "CC BY-NC 2.0", "priority": 1, "link": "https://creativecommons.org/licenses/by-nc/2.0/"}, "single_use": false, "variants": []}, "infographic": null}]}